{
    "name": "PropaneComb1_output",
    "required": ["y_1"],
    "properties": {
        "y_1": {
            "items": {
                "type": "number",
                "id": "0"
            },
            "minItems": 2,
          	"maxItems": 2,
            "type": "array",
            "id": "y_1"
        }
    },
    "$schema": "http://json-schema.org/draft-04/schema",
    "type": "object",
    "id": "#PropaneComb1_output"
}
